\relax 
\@writefile{toc}{\contentsline {section}{\numberline {6.3}実験室における配席方法について}{16}}
\@writefile{toc}{\contentsline {subsection}{\numberline {6.3.1}実験室のノンテリトリアルオフィスの構成について}{16}}
\@writefile{lof}{\contentsline {figure}{\numberline {6.1}{\ignorespaces 実験環境レイアウト図}}{16}}
\newlabel{kc104}{{6.1}{16}}
\@writefile{lof}{\contentsline {figure}{\numberline {6.2}{\ignorespaces 実験環境写真}}{16}}
\newlabel{real104}{{6.2}{16}}
\@writefile{toc}{\contentsline {subsection}{\numberline {6.3.2}座席の配席方法について}{16}}
\@writefile{lof}{\contentsline {figure}{\numberline {6.3}{\ignorespaces 座席自動決定システム}}{17}}
\newlabel{ADSS}{{6.3}{17}}
\@setckpt{chapterOther}{
\setcounter{page}{18}
\setcounter{equation}{0}
\setcounter{enumi}{0}
\setcounter{enumii}{0}
\setcounter{enumiii}{0}
\setcounter{enumiv}{0}
\setcounter{footnote}{0}
\setcounter{mpfootnote}{0}
\setcounter{@paper}{1}
\setcounter{part}{0}
\setcounter{chapter}{6}
\setcounter{section}{3}
\setcounter{subsection}{2}
\setcounter{subsubsection}{0}
\setcounter{paragraph}{0}
\setcounter{subparagraph}{0}
\setcounter{figure}{3}
\setcounter{table}{0}
\setcounter{parentequation}{0}
\setcounter{subfigure}{0}
\setcounter{lofdepth}{1}
\setcounter{subtable}{0}
\setcounter{lotdepth}{1}
}
