\relax 
\citation{7per}
\citation{crossbow}
\citation{napica}
\@writefile{toc}{\contentsline {chapter}{\numberline {3}天井照明の光度制御を用いたデータ通信手法}{3}}
\@writefile{toc}{\contentsline {section}{\numberline {3.1}天井照明の光度制御を用いたデータ通信手法概要}{3}}
\@writefile{toc}{\contentsline {section}{\numberline {3.2}無線センサノードを用いた照度推移実験}{3}}
\@writefile{lof}{\contentsline {figure}{\numberline {3.1}{\ignorespaces 照度取得実験環境}}{3}}
\newlabel{fig:kc111}{{3.1}{3}}
\@writefile{lof}{\contentsline {figure}{\numberline {3.2}{\ignorespaces 照度取得実験風景}}{4}}
\newlabel{fig:kc111_pic}{{3.2}{4}}
\@writefile{toc}{\contentsline {section}{\numberline {3.3}天井照明の光度制御を用いたデータ通信アルゴリズム}{4}}
\@writefile{lof}{\contentsline {figure}{\numberline {3.3}{\ignorespaces 100 ms間隔で取得した照度履歴}}{5}}
\newlabel{fig:100ms}{{3.3}{5}}
\@setckpt{chapter3}{
\setcounter{page}{7}
\setcounter{equation}{1}
\setcounter{enumi}{0}
\setcounter{enumii}{0}
\setcounter{enumiii}{0}
\setcounter{enumiv}{0}
\setcounter{footnote}{0}
\setcounter{mpfootnote}{0}
\setcounter{@paper}{1}
\setcounter{part}{0}
\setcounter{chapter}{3}
\setcounter{section}{3}
\setcounter{subsection}{0}
\setcounter{subsubsection}{0}
\setcounter{paragraph}{0}
\setcounter{subparagraph}{0}
\setcounter{figure}{3}
\setcounter{table}{0}
\setcounter{parentequation}{0}
\setcounter{subfigure}{0}
\setcounter{lofdepth}{1}
\setcounter{subtable}{0}
\setcounter{lotdepth}{1}
}
