\relax 
\@writefile{toc}{\contentsline {chapter}{\numberline {4} 天井照明の光度制御を用いたデータ通信における通信速度の高速化}{7}}
\@writefile{toc}{\contentsline {section}{\numberline {4.1}高速化手法概要}{7}}
\@writefile{lof}{\contentsline {figure}{\numberline {4.1}{\ignorespaces 照度の階調変化による高速化}}{7}}
\newlabel{fig:kaicho}{{4.1}{7}}
\@writefile{toc}{\contentsline {section}{\numberline {4.2}送信間隔による高速化実験}{7}}
\@writefile{toc}{\contentsline {section}{\numberline {4.3}送信間隔による高速化実験結果と考察}{7}}
\@writefile{lot}{\contentsline {table}{\numberline {4.1}{\ignorespaces 各光度変化間隔におけるデータ通信実験を行った際の誤り率}}{8}}
\newlabel{hyo}{{4.1}{8}}
\@writefile{toc}{\contentsline {section}{\numberline {4.4}照度の多段階調変化による高速化実験}{8}}
\@writefile{lof}{\contentsline {figure}{\numberline {4.2}{\ignorespaces センサノードの取得照度と受信ビット}}{9}}
\newlabel{fig:hyou1}{{4.2}{9}}
\@writefile{toc}{\contentsline {section}{\numberline {4.5}照度の多段階調変化による高速化実験結果と考察}{9}}
\@writefile{lof}{\contentsline {figure}{\numberline {4.3}{\ignorespaces 照度の多段階調変化による高速化実験の際に生じたビット誤り}}{10}}
\newlabel{fig:hyou2}{{4.3}{10}}
\@setckpt{chapter4}{
\setcounter{page}{11}
\setcounter{equation}{0}
\setcounter{enumi}{0}
\setcounter{enumii}{0}
\setcounter{enumiii}{0}
\setcounter{enumiv}{0}
\setcounter{footnote}{0}
\setcounter{mpfootnote}{0}
\setcounter{@paper}{1}
\setcounter{part}{0}
\setcounter{chapter}{4}
\setcounter{section}{5}
\setcounter{subsection}{0}
\setcounter{subsubsection}{0}
\setcounter{paragraph}{0}
\setcounter{subparagraph}{0}
\setcounter{figure}{3}
\setcounter{table}{1}
\setcounter{parentequation}{0}
\setcounter{subfigure}{0}
\setcounter{lofdepth}{1}
\setcounter{subtable}{0}
\setcounter{lotdepth}{1}
}
