\relax 
\@input{title.aux}
\@input{chapter1.aux}
\@input{chapter2.aux}
\@input{chapter3.aux}
\@input{chapter4.aux}
\@input{chapter5.aux}
\@input{chapter6.aux}
\@input{chapter8.aux}
\bibstyle{junsrt}
\bibdata{bibbiography}
\bibcite{a}{1}
\bibcite{dust}{2}
\bibcite{b}{3}
\bibcite{d}{4}
\bibcite{e}{5}
\bibcite{dsr}{6}
\bibcite{visi}{7}
\bibcite{7per}{8}
\bibcite{crossbow}{9}
\bibcite{napica}{10}
