\relax 
\@writefile{lof}{\contentsline {figure}{\numberline {6.1}{\ignorespaces 実験環境レイアウト図}}{14}}
\newlabel{kc104}{{6.1}{14}}
\@writefile{lof}{\contentsline {figure}{\numberline {6.2}{\ignorespaces 実験環境写真}}{14}}
\newlabel{real104}{{6.2}{14}}
\@writefile{lof}{\contentsline {figure}{\numberline {6.3}{\ignorespaces 座席自動決定システム}}{15}}
\newlabel{ADSS}{{6.3}{15}}
\@writefile{lof}{\contentsline {figure}{\numberline {6.4}{\ignorespaces 実験環境のレイアウト図}}{15}}
\newlabel{fig:layout3}{{6.4}{15}}
\@writefile{lof}{\contentsline {figure}{\numberline {6.5}{\ignorespaces 長方形に分割する方法}}{16}}
\newlabel{fig:box}{{6.5}{16}}
\@writefile{lof}{\contentsline {figure}{\numberline {6.6}{\ignorespaces 三角形に分割する方法}}{16}}
\newlabel{fig:naname}{{6.6}{16}}
\@writefile{lof}{\contentsline {figure}{\numberline {6.7}{\ignorespaces パーティションなし}}{16}}
\newlabel{fig:no_line}{{6.7}{16}}
\@writefile{lot}{\contentsline {table}{\numberline {6.1}{\ignorespaces 分割方法の違いによる快適度の違い}}{17}}
\newlabel{tab:like}{{6.1}{17}}
\@writefile{lot}{\contentsline {table}{\numberline {6.2}{\ignorespaces レンガブロックの有無における快適性の違い}}{18}}
\newlabel{tab:adobe}{{6.2}{18}}
\@setckpt{chapter_other}{
\setcounter{page}{19}
\setcounter{equation}{0}
\setcounter{enumi}{0}
\setcounter{enumii}{0}
\setcounter{enumiii}{0}
\setcounter{enumiv}{0}
\setcounter{footnote}{0}
\setcounter{mpfootnote}{0}
\setcounter{@paper}{1}
\setcounter{part}{0}
\setcounter{chapter}{6}
\setcounter{section}{2}
\setcounter{subsection}{0}
\setcounter{subsubsection}{0}
\setcounter{paragraph}{0}
\setcounter{subparagraph}{0}
\setcounter{figure}{7}
\setcounter{table}{2}
\setcounter{parentequation}{0}
\setcounter{subfigure}{0}
\setcounter{lofdepth}{1}
\setcounter{subtable}{0}
\setcounter{lotdepth}{1}
}
