\relax 
\@writefile{toc}{\contentsline {chapter}{\numberline {5}評価}{11}}
\@writefile{toc}{\contentsline {section}{\numberline {5.1}天井照明の光度制御を用いたデータ通信における通信速度の評価}{11}}
\@writefile{toc}{\contentsline {section}{\numberline {5.2}天井照明の光度制御を用いたデータ通信における誤り率の評価}{11}}
\@setckpt{chapter5}{
\setcounter{page}{12}
\setcounter{equation}{0}
\setcounter{enumi}{0}
\setcounter{enumii}{0}
\setcounter{enumiii}{0}
\setcounter{enumiv}{0}
\setcounter{footnote}{0}
\setcounter{mpfootnote}{0}
\setcounter{@paper}{1}
\setcounter{part}{0}
\setcounter{chapter}{5}
\setcounter{section}{2}
\setcounter{subsection}{0}
\setcounter{subsubsection}{0}
\setcounter{paragraph}{0}
\setcounter{subparagraph}{0}
\setcounter{figure}{0}
\setcounter{table}{0}
\setcounter{parentequation}{0}
\setcounter{subfigure}{0}
\setcounter{lofdepth}{1}
\setcounter{subtable}{0}
\setcounter{lotdepth}{1}
}
