\relax 
\@writefile{toc}{\contentsline {chapter}{\numberline {2}センサノードにおけるデータ通信の先行研究}{2}}
\@writefile{toc}{\contentsline {section}{\numberline {2.1}フラッディングの先行研究}{2}}
\@writefile{toc}{\contentsline {section}{\numberline {2.2}可視光通信の先行研究}{2}}
\@setckpt{chapter2}{
\setcounter{page}{3}
\setcounter{equation}{0}
\setcounter{enumi}{0}
\setcounter{enumii}{0}
\setcounter{enumiii}{0}
\setcounter{enumiv}{0}
\setcounter{footnote}{0}
\setcounter{mpfootnote}{0}
\setcounter{@paper}{1}
\setcounter{part}{0}
\setcounter{chapter}{2}
\setcounter{section}{2}
\setcounter{subsection}{0}
\setcounter{subsubsection}{0}
\setcounter{paragraph}{0}
\setcounter{subparagraph}{0}
\setcounter{figure}{0}
\setcounter{table}{0}
\setcounter{parentequation}{0}
\setcounter{subfigure}{0}
\setcounter{lofdepth}{1}
\setcounter{subtable}{0}
\setcounter{lotdepth}{1}
}
