\relax 
\citation{wsnsurvey}
\citation{visualL}
\@writefile{toc}{\contentsline {section}{\numberline {1}はじめに}{0}}
\@writefile{toc}{\contentsline {section}{\numberline {2}天井照明の光度制御を用いたデータ通信手法}{0}}
\@writefile{toc}{\contentsline {subsection}{\numberline {2.1}天井照明の光度制御を用いたデータ通信手法概要}{0}}
\@writefile{toc}{\contentsline {subsection}{\numberline {2.2}無線センサノードを用いた照度推移実験}{0}}
\@writefile{lof}{\contentsline {figure}{\numberline {1}{\ignorespaces 照度取得実験環境}}{0}}
\newlabel{fig:kc111}{{1}{0}}
\@writefile{toc}{\contentsline {section}{\numberline {3}天助照明の光度制御を用いたデータ通信のアルゴリズム}{0}}
\@writefile{toc}{\contentsline {subsection}{\numberline {3.1}光度制御を用いたデータ通信アルゴリズム}{0}}
\bibcite{wsnsurvey}{1}
\bibcite{visualL}{2}
\@writefile{lof}{\contentsline {figure}{\numberline {2}{\ignorespaces 100 ms間隔で取得した照度履歴}}{1}}
\newlabel{fig:100ms}{{2}{1}}
\@writefile{lof}{\contentsline {figure}{\numberline {3}{\ignorespaces 階調変化例}}{1}}
\newlabel{fig:kaicho}{{3}{1}}
\@writefile{toc}{\contentsline {subsection}{\numberline {3.2}階調変化による光度制御を用いたデータ通信アルゴリズム}{1}}
\@writefile{toc}{\contentsline {section}{\numberline {4}天井照明の光度制御を用いたデータ通信実験}{1}}
\@writefile{toc}{\contentsline {subsection}{\numberline {4.1}光度制御を用いたデータ通信実験概要}{1}}
\@writefile{toc}{\contentsline {subsection}{\numberline {4.2}光度制御を用いたデータ通信実験}{1}}
\@writefile{toc}{\contentsline {subsection}{\numberline {4.3}階調変化による光度制御を用いたデータ通信実験}{1}}
\@writefile{toc}{\contentsline {section}{\numberline {5}結論}{1}}
