\relax 
\citation{wsnsurvey}
\citation{visualL}
\citation{napica}
\@writefile{toc}{\contentsline {section}{\numberline {1}はじめに}{11}}
\@writefile{toc}{\contentsline {section}{\numberline {2}天井照明の光度制御を用いたデータ通信手法}{11}}
\@writefile{toc}{\contentsline {subsection}{\numberline {2.1}天井照明の光度制御を用いたデータ通信手法概要}{11}}
\@writefile{toc}{\contentsline {subsection}{\numberline {2.2}無線センサノードを用いた照度推移実験}{11}}
\@writefile{lof}{\contentsline {figure}{\numberline {1}{\ignorespaces 照度取得実験環境}}{11}}
\newlabel{fig:kc111}{{1}{11}}
\@writefile{toc}{\contentsline {section}{\numberline {3}天井照明の光度制御を用いたデータ通信のアルゴリズム}{11}}
\@writefile{toc}{\contentsline {subsection}{\numberline {3.1}光度制御を用いたデータ通信アルゴリズム}{11}}
\bibcite{wsnsurvey}{1}
\bibcite{visualL}{2}
\bibcite{napica}{3}
\@writefile{lof}{\contentsline {figure}{\numberline {2}{\ignorespaces 100 ms間隔で取得した照度履歴}}{12}}
\newlabel{fig:100ms}{{2}{12}}
\@writefile{toc}{\contentsline {subsection}{\numberline {3.2}階調変化による光度制御を用いたデータ通信アルゴリズム}{12}}
\@writefile{toc}{\contentsline {section}{\numberline {4}天井照明の光度制御を用いたデータ通信実験}{12}}
\@writefile{toc}{\contentsline {subsection}{\numberline {4.1}光度制御を用いたデータ通信実験概要}{12}}
\@writefile{lof}{\contentsline {figure}{\numberline {3}{\ignorespaces 階調変化例}}{12}}
\newlabel{fig:kaicho}{{3}{12}}
\@writefile{toc}{\contentsline {subsection}{\numberline {4.2}光度制御を用いたデータ通信実験}{12}}
\@writefile{toc}{\contentsline {subsection}{\numberline {4.3}階調変化による光度制御を用いたデータ通信実験}{12}}
\@writefile{toc}{\contentsline {section}{\numberline {5}結論}{12}}
